<?xml version="1.0" encoding="utf-8"?>
<!-- Generator: Adobe Illustrator 22.0.1, SVG Export Plug-In . SVG Version: 6.00 Build 0)  -->
<svg version="1.1" id="Layer_1" xmlns="http://www.w3.org/2000/svg" xmlns:xlink="http://www.w3.org/1999/xlink" x="0px" y="0px"
	 viewBox="0 0 153.3 153.3" style="enable-background:new 0 0 153.3 153.3;" xml:space="preserve">
<style type="text/css">
	.st0{
    fill:#000000; 
    fill-opacity: 0.2;
  }
</style>
<path class="st0" d="M152.7,136.7c0.7,0.7,0.7,1.9,0,2.7l-13.4,13.4c-0.7,0.7-1.9,0.7-2.7,0l-60-60l-60,60c-0.7,0.7-1.9,0.7-2.6,0
	L0.6,139.3c-0.7-0.7-0.7-1.9,0-2.7l60-60l-60-60c-0.7-0.7-0.7-1.9,0-2.6L14,0.6c0.7-0.7,1.9-0.7,2.6,0l60,60l60-60
	c0.7-0.7,1.9-0.7,2.7,0L152.7,14c0.7,0.7,0.7,1.9,0,2.6l-60,60L152.7,136.7z"/>
</svg>
